generating tumor deconvolution training data from SC experiment
…
head(markers)

##           p_val avg_logFC pct.1 pct.2 p_val_adj cluster      gene
## ID3           0  1.513025 0.816 0.348         0       0       ID3
## IGKC          0  1.315810 0.998 0.525         0       0      IGKC
## IGHA1         0  1.311283 0.757 0.113         0       0     IGHA1
## LITAF         0  1.297331 0.847 0.456         0       0     LITAF
## LY9           0  1.276574 0.885 0.372         0       0       LY9
## TNFRSF13B     0  1.275520 0.742 0.099         0       0 TNFRSF13B

markers %>% group_by(cluster) %>% top_n(30, avg_logFC)

## # A tibble: 370 x 7
## # Groups:   cluster [13]
##    p_val avg_logFC pct.1 pct.2 p_val_adj cluster gene     
##    <dbl>     <dbl> <dbl> <dbl>     <dbl> <fct>   <chr>    
##  1     0      1.51 0.816 0.348         0 0       ID3      
##  2     0      1.32 0.998 0.525         0 0       IGKC     
##  3     0      1.31 0.757 0.113         0 0       IGHA1    
##  4     0      1.30 0.847 0.456         0 0       LITAF    
##  5     0      1.28 0.885 0.372         0 0       LY9      
##  6     0      1.28 0.742 0.099         0 0       TNFRSF13B
##  7     0      1.19 0.896 0.499         0 0       SQSTM1   
##  8     0      1.14 0.99  0.91          0 0       KLF6     
##  9     0      1.09 0.705 0.287         0 0       BCL2A1   
## 10     0      1.09 0.888 0.582         0 0       RGCC     
## # ... with 360 more rows
…
